Id,Name
0013C00000MSngjQAD,TestPOCC Account
0013C00000MVSL7QAP,ARCA Household
0013C00000MWd6fQAD,caretaker226838 Household
0013C00000MXMDlQAP,Test Household
0013C00000New6dQAB,Caretacer Household
0013C00000Nex7IQAR,New Student 3 Household
0013C00000OP0QFQA1,09222020 Household
0013C00000OREl1QAH,DemoKT Household
0013C00000OqBH8QAN,CT Household
0013C00000Ppl3MQAR,Lane Household